<svg fill="currentColor" height="24" viewBox="0 0 24 24" width="24" xmlns="http://www.w3.org/2000/svg">
    <path d="M0 0h24v24H0z" fill="none"/>
    <polygon id="Combined-Shape" fill-rule="nonzero" points="18.5710678 11 2 11 2 13 18.5416306 13 11.7781746 19.763456 13.1923882 21.1776695 22.3847763 11.9852814 13.1923882 2.79289322 11.7781746 4.20710678"></polygon>
</svg>
