<svg fill="currentColor" height="24" viewBox="0 0 24 24" width="24" xmlns="http://www.w3.org/2000/svg">
    <path d="M0 0h24v24H0z" fill="none"/>
            <rect id="Mask" fill-opacity="0" x="0" y="0" width="24" height="24"></rect>
            <path d="M13.000615,3.05499678 L13.000615,11.5864014 L19.0318994,17.6176858 C20.2635271,16.078015 21,14.1250137 21,12 C21,7.36765739 17.5002693,3.55272067 13.000615,3.05499678 Z M11.000615,3.05486082 C6.82870894,3.51575207 3.51610026,6.8281784 3.05492878,11 L11.000615,11 L11.000615,3.05486082 Z M3.05492878,13 C3.55237307,17.4999505 7.36744635,21 12,21 C14.1250137,21 16.078015,20.2635271 17.6176858,19.0318994 L11.5857864,13 L3.05492878,13 Z M12,23 C5.92486775,23 1,18.0751322 1,12 C1,5.92486775 5.92486775,1 12,1 C18.0751322,1 23,5.92486775 23,12 C23,18.0751322 18.0751322,23 12,23 Z" id="Combined-Shape" fill-rule="nonzero"></path>
</svg>
