<svg fill="currentColor" height="24" viewBox="0 0 24 24" width="24" xmlns="http://www.w3.org/2000/svg">
    <path d="M0 0h24v24H0z" fill="none"/>
    <path d="M15.6268775,11.579245 L18.8532425,7.28192856 C18.6289264,6.9070891 18.5,6.46860073 18.5,6 C18.5,4.61928813 19.6192881,3.5 21,3.5 C22.3807119,3.5 23.5,4.61928813 23.5,6 C23.5,7.38071187 22.3807119,8.5 21,8.5 C20.8217927,8.5 20.6479405,8.48135396 20.4802878,8.44590641 L17.2010973,12.813583 C17.3917673,13.1665793 17.5,13.5706501 17.5,14 C17.5,15.3807119 16.3807119,16.5 15,16.5 C13.6192881,16.5 12.5,15.3807119 12.5,14 C12.5,13.9566873 12.5011015,13.9136318 12.5032779,13.87086 L10.6145619,12.9087834 C10.1789728,13.2776008 9.61545848,13.5 9,13.5 C8.75768403,13.5 8.52342004,13.4655254 8.30184524,13.4012132 L5.26588537,16.9422945 C5.4160925,17.2635268 5.5,17.6219646 5.5,18 C5.5,19.3807119 4.38071187,20.5 3,20.5 C1.61928813,20.5 0.5,19.3807119 0.5,18 C0.5,16.6192881 1.61928813,15.5 3,15.5 C3.26705955,15.5 3.52433872,15.5418747 3.76562979,15.6194164 L6.76488315,12.1211489 C6.59541116,11.7839506 6.5,11.4031175 6.5,11 C6.5,9.61928813 7.61928813,8.5 9,8.5 C10.3807119,8.5 11.5,9.61928813 11.5,11 C11.5,11.0382019 11.4991431,11.0762038 11.4974476,11.1139873 L13.3969277,12.081547 C13.8309151,11.7185155 14.389939,11.5 15,11.5 C15.2164885,11.5 15.4265499,11.5275173 15.6268775,11.579245 Z M3,19.5 C3.82842712,19.5 4.5,18.8284271 4.5,18 C4.5,17.1715729 3.82842712,16.5 3,16.5 C2.17157288,16.5 1.5,17.1715729 1.5,18 C1.5,18.8284271 2.17157288,19.5 3,19.5 Z M9,12.5 C9.82842712,12.5 10.5,11.8284271 10.5,11 C10.5,10.1715729 9.82842712,9.5 9,9.5 C8.17157288,9.5 7.5,10.1715729 7.5,11 C7.5,11.8284271 8.17157288,12.5 9,12.5 Z M15,15.5 C15.8284271,15.5 16.5,14.8284271 16.5,14 C16.5,13.1715729 15.8284271,12.5 15,12.5 C14.1715729,12.5 13.5,13.1715729 13.5,14 C13.5,14.8284271 14.1715729,15.5 15,15.5 Z M21,7.5 C21.8284271,7.5 22.5,6.82842712 22.5,6 C22.5,5.17157288 21.8284271,4.5 21,4.5 C20.1715729,4.5 19.5,5.17157288 19.5,6 C19.5,6.82842712 20.1715729,7.5 21,7.5 Z" id="Combined-Shape" fill-rule="nonzero"></path>
</svg>
