<svg fill="currentColor" height="24" viewBox="0 0 24 24" width="24" xmlns="http://www.w3.org/2000/svg">
    <path d="M0 0h24v24H0z" fill="none"/>
    <path d="M1,15 L5,15 L5,21 L1,21 L1,15 Z M7,8 L11,8 L11,21 L7,21 L7,8 Z M13,11 L17,11 L17,21 L13,21 L13,11 Z M19,3 L23,3 L23,21 L19,21 L19,3 Z" id="Combined-Shape"></path>
</svg>
