<svg fill="currentColor" height="24" viewBox="0 0 24 24" width="24" xmlns="http://www.w3.org/2000/svg">
    <path d="M0 0h24v24H0z" fill="none"/>
    <polygon id="Rectangle" fill-rule="nonzero" points="8.5 16.0857864 3.20710678 10.7928932 1.79289322 12.2071068 8.5 18.9142136 22.2071068 5.20710678 20.7928932 3.79289322"></polygon>
</svg>
