<svg fill="currentColor" height="24" viewBox="0 0 24 24" width="24" xmlns="http://www.w3.org/2000/svg">
    <path d="M0 0h24v24H0z" fill="none"/>
            <polygon id="Rectangle" fill-rule="nonzero" points="7.77817459 19.763456 9.19238816 21.1776695 18.3847763 11.9852814 9.19238816 2.79289322 7.77817459 4.20710678 15.5563492 11.9852814"></polygon>
</svg>
