<svg fill="currentColor" height="24" viewBox="0 0 24 24" width="24" xmlns="http://www.w3.org/2000/svg">
    <path d="M0 0h24v24H0z" fill="none"/>
            <path d="M7,4 C7,3.44771525 7.44771525,3 8,3 L9.33333333,3 L9.77207592,1.68377223 C9.90818997,1.27543009 10.2903288,1 10.7207592,1 L13.2792408,1 C13.7096712,1 14.09181,1.27543009 14.2279241,1.68377223 L14.6666667,3 L16,3 C16.5522847,3 17,3.44771525 17,4 L19,4 C19.5522847,4 20,4.44771525 20,5 L20,22 C20,22.5522847 19.5522847,23 19,23 L5,23 C4.44771525,23 4,22.5522847 4,22 L4,5 C4,4.44771525 4.44771525,4 5,4 L7,4 Z M6,6 L6,21 L18,21 L18,6 L17,6 L16.9786029,7.09321713 L7,7 L7,6 L6,6 Z M16,6 L16,4 L13.9459074,4 L13.2792408,2 L10.7207592,2 L10.0540926,4 L8,4 L8,6 L16,6 Z" id="Combined-Shape" fill-rule="nonzero"></path>
</svg>
