<svg fill="currentColor" height="24" viewBox="0 0 24 24" width="24" xmlns="http://www.w3.org/2000/svg">
    <path d="M0 0h24v24H0z" fill="none"/>
            <path d="M22,8 L22,7 C22,6.44771525 21.5522847,6 21,6 L3,6 C2.44771525,6 2,6.44771525 2,7 L2,8 L22,8 Z M22,12 L2,12 L2,18 C2,18.5522847 2.44771525,19 3,19 L21,19 C21.5522847,19 22,18.5522847 22,18 L22,12 Z M3,4 L21,4 C22.6568542,4 24,5.34314575 24,7 L24,18 C24,19.6568542 22.6568542,21 21,21 L3,21 C1.34314575,21 2.02906125e-16,19.6568542 0,18 L0,7 C-2.02906125e-16,5.34314575 1.34314575,4 3,4 Z M4,15 L14,15 L14,17 L4,17 L4,15 Z" id="Combined-Shape" fill-rule="nonzero"></path>
</svg>
