<svg fill="currentColor" height="24" viewBox="0 0 24 24" width="24" xmlns="http://www.w3.org/2000/svg">
    <path d="M0 0h24v24H0z" fill="none"/>
            <path d="M10,20.3367034 C7.70781512,19.8097538 6,18.0398457 6,15.5 L9,15.5 C9,16.7196733 9.99490465,17.5 11.4666191,17.5 C12.9383336,17.5 13.9332383,16.7196733 13.9332383,15.5 C13.9332383,14.7826915 13.1647323,14.1241967 11.0499796,13.5687766 C7.82673754,12.5176343 6,10.8603068 6,8.5 C6,5.97299664 7.71137241,4.20994952 10,3.67231668 L10,2 L13,2 L13,3.67475079 C15.2936364,4.23158861 17,6.0812286 17,8.67557036 L14,8.67557036 C14,7.34501863 12.9743835,6.5 11.5150445,6.5 C10.0222632,6.5 9,7.29014061 9,8.5 C9,9.25080433 9.84995879,10.0219387 11.8943141,10.6914333 C15.089615,11.5264875 16.9332383,13.1061973 16.9332383,15.5 C16.9332383,18.0151256 15.2585054,19.7752281 13,20.3209644 L13,22 L10,22 L10,20.3367034 L10,20.3367034 Z" id="Combined-Shape" fill-rule="nonzero"></path>
</svg>
