<svg fill="currentColor" height="24" viewBox="0 0 24 24" width="24" xmlns="http://www.w3.org/2000/svg">
    <path d="M0 0h24v24H0z" fill="none"/>
            <path d="M11.2819426,3 L12.7180574,3 C13.1638168,3 13.3254599,3.04641281 13.4884229,3.13356635 C13.6513858,3.2207199 13.7792801,3.34861419 13.8664336,3.51157715 C13.9535872,3.67454011 14,3.83618323 14,4.2819426 L14,5.7180574 C14,6.16381677 13.9535872,6.32545989 13.8664336,6.48842285 C13.7792801,6.65138581 13.6513858,6.7792801 13.4884229,6.86643365 C13.3254599,6.95358719 13.1638168,7 12.7180574,7 L11.2819426,7 C10.8361832,7 10.6745401,6.95358719 10.5115771,6.86643365 C10.3486142,6.7792801 10.2207199,6.65138581 10.1335664,6.48842285 C10.0464128,6.32545989 10,6.16381677 10,5.7180574 L10,4.2819426 C10,3.83618323 10.0464128,3.67454011 10.1335664,3.51157715 C10.2207199,3.34861419 10.3486142,3.2207199 10.5115771,3.13356635 C10.6745401,3.04641281 10.8361832,3 11.2819426,3 Z M11.2819426,17 L12.7180574,17 C13.1638168,17 13.3254599,17.0464128 13.4884229,17.1335664 C13.6513858,17.2207199 13.7792801,17.3486142 13.8664336,17.5115771 C13.9535872,17.6745401 14,17.8361832 14,18.2819426 L14,19.7180574 C14,20.1638168 13.9535872,20.3254599 13.8664336,20.4884229 C13.7792801,20.6513858 13.6513858,20.7792801 13.4884229,20.8664336 C13.3254599,20.9535872 13.1638168,21 12.7180574,21 L11.2819426,21 C10.8361832,21 10.6745401,20.9535872 10.5115771,20.8664336 C10.3486142,20.7792801 10.2207199,20.6513858 10.1335664,20.4884229 C10.0464128,20.3254599 10,20.1638168 10,19.7180574 L10,18.2819426 C10,17.8361832 10.0464128,17.6745401 10.1335664,17.5115771 C10.2207199,17.3486142 10.3486142,17.2207199 10.5115771,17.1335664 C10.6745401,17.0464128 10.8361832,17 11.2819426,17 Z M11.2819426,10 L12.7180574,10 C13.1638168,10 13.3254599,10.0464128 13.4884229,10.1335664 C13.6513858,10.2207199 13.7792801,10.3486142 13.8664336,10.5115771 C13.9535872,10.6745401 14,10.8361832 14,11.2819426 L14,12.7180574 C14,13.1638168 13.9535872,13.3254599 13.8664336,13.4884229 C13.7792801,13.6513858 13.6513858,13.7792801 13.4884229,13.8664336 C13.3254599,13.9535872 13.1638168,14 12.7180574,14 L11.2819426,14 C10.8361832,14 10.6745401,13.9535872 10.5115771,13.8664336 C10.3486142,13.7792801 10.2207199,13.6513858 10.1335664,13.4884229 C10.0464128,13.3254599 10,13.1638168 10,12.7180574 L10,11.2819426 C10,10.8361832 10.0464128,10.6745401 10.1335664,10.5115771 C10.2207199,10.3486142 10.3486142,10.2207199 10.5115771,10.1335664 C10.6745401,10.0464128 10.8361832,10 11.2819426,10 Z" id="Combined-Shape"></path>
</svg>
